<svg xmlns="http://www.w3.org/2000/svg" xmlns:xlink="http://www.w3.org/1999/xlink" width="72" height="92" viewBox="0 0 72 92">
  <defs>
    <rect id="tile-nfc-a" width="72" height="92"/>
    <rect id="tile-nfc-c" width="29" height="45"/>
    <rect id="tile-nfc-e" width="106" height="70"/>
  </defs>
  <g fill="none" fill-rule="evenodd">
    <mask id="tile-nfc-b" fill="#fff">
      <use xlink:href="#tile-nfc-a"/>
    </mask>
    <use fill="#FFF" xlink:href="#tile-nfc-a"/>
    <g mask="url(#tile-nfc-b)">
      <g transform="translate(43 27)">
        <mask id="tile-nfc-d" fill="#fff">
          <use xlink:href="#tile-nfc-c"/>
        </mask>
        <use fill="#FFF" opacity="0" xlink:href="#tile-nfc-c"/>
        <path fill="#E17000" d="M3.51515152,21.1893204 L28.5606061,21.1893204 L28.5606061,26.4320388 C28.5606061,28.8449334 26.5933724,30.8009709 24.1666667,30.8009709 L7.90909091,30.8009709 C5.48238519,30.8009709 3.51515152,28.8449334 3.51515152,26.4320388 L3.51515152,21.1893204 Z" mask="url(#tile-nfc-d)"/>
        <path fill="#000" fill-rule="nonzero" d="M16.0378788,27.3058252 L16.0378788,27.3058252 C16.2805494,27.3058252 16.4772727,27.5025486 16.4772727,27.7452192 L16.4772727,40.1883717 C16.4772727,42.8457606 14.3133157,45 11.6439394,45 L-0.439393939,45 L-0.439393939,44.1251585 L11.6439394,44.1251585 C13.8279745,44.1251585 15.5984848,42.362599 15.5984848,40.1883717 L15.5984848,27.7452192 C15.5984848,27.5025486 15.7952082,27.3058252 16.0378788,27.3058252 Z" mask="url(#tile-nfc-d)"/>
        <path fill="#000" fill-rule="nonzero" d="M4.39393939,22.0631068 L4.39393939,26.4320388 C4.39393939,28.3623545 5.96772633,29.9271845 7.90909091,29.9271845 L24.1666667,29.9271845 C26.1080312,29.9271845 27.6818182,28.3623545 27.6818182,26.4320388 L27.6818182,22.0631068 L4.39393939,22.0631068 Z M3.51515152,21.1893204 L28.5606061,21.1893204 L28.5606061,26.4320388 C28.5606061,28.8449334 26.5933724,30.8009709 24.1666667,30.8009709 L7.90909091,30.8009709 C5.48238519,30.8009709 3.51515152,28.8449334 3.51515152,26.4320388 L3.51515152,21.1893204 Z" mask="url(#tile-nfc-d)"/>
        <path fill="#FFF" d="M9.98514182,0 L22.309921,0 C24.5419555,0 26.4175836,1.67158902 26.6661692,3.88235637 L28.5329437,20.4842981 C28.8025692,22.8821816 27.0707851,25.0438976 24.6648957,25.3126259 C24.5027964,25.3307317 24.3398095,25.3398058 24.1766954,25.3398058 L8.11836739,25.3398058 C5.69741675,25.3398058 3.73484848,23.3837683 3.73484848,20.9708738 C3.73484848,20.8083025 3.74395287,20.645858 3.76211917,20.4842981 L5.6288936,3.88235637 C5.87747922,1.67158902 7.75310732,1.55215646e-15 9.98514182,0 Z" mask="url(#tile-nfc-d)"/>
        <path fill="#000" fill-rule="nonzero" d="M9.81774438,0.873786408 C8.01543034,0.873786408 6.50090588,2.21105762 6.30017899,3.97967151 L4.41595982,20.5816133 C4.40129097,20.7108612 4.39393939,20.8408168 4.39393939,20.9708738 C4.39393939,22.9011894 5.97866594,24.4660194 7.93352521,24.4660194 L24.1419161,24.4660194 C24.2736267,24.4660194 24.4052347,24.4587601 24.536126,24.4442755 C26.4788237,24.2292928 27.8771976,22.49992 27.6594815,20.5816133 L25.7752623,3.97967151 C25.5745354,2.21105762 24.0600109,0.873786408 22.2576969,0.873786408 L9.81774438,0.873786408 Z M9.82075718,0 L22.2546052,0 C24.5063922,0 26.3986188,1.67158902 26.6494043,3.88235637 L28.5326989,20.4842981 C28.8047105,22.8821816 27.0576009,25.0438976 24.6304204,25.3126259 C24.4668866,25.3307317 24.3024573,25.3398058 24.1378998,25.3398058 L7.93746262,25.3398058 C5.49508764,25.3398058 3.51515152,23.3837683 3.51515152,20.9708738 C3.51515152,20.8083025 3.52433647,20.645858 3.54266354,20.4842981 L5.42595809,3.88235637 C5.67674359,1.67158902 7.56897016,1.55215646e-15 9.82075718,0 Z" mask="url(#tile-nfc-d)"/>
        <path fill="#000" fill-rule="nonzero" d="M13.8056378 20.8713328C13.7315375 20.9474328 13.6243582 21.0058658 13.4840967 21.0466336 13.3438353 21.0874015 13.1757888 21.1077851 12.9799521 21.1077851 12.7841154 21.1077851 12.5988672 21.0778891 12.424202 21.0180963 12.2495369 20.9583035 12.1066311 20.8142592 11.9954806 20.5859593L11.2094912 18.9389467C11.130098 18.7704396 11.0586451 18.6114474 10.9951305 18.4619653 10.9316159 18.3124832 10.8628094 18.1399019 10.7887091 17.9442163L10.7410734 17.9523698C10.7622449 18.2458983 10.7741537 18.544858 10.7768001 18.8492579 10.7794466 19.1536578 10.7807698 19.4526175 10.7807698 19.7461459L10.7807698 21.0099428C10.7225481 21.0262499 10.6338936 21.0425568 10.5148037 21.0588639 10.3957138 21.0751711 10.2779489 21.0833245 10.1615055 21.0833245 10.045062 21.0833245 9.94185232 21.0751711 9.85187329 21.0588639 9.76189427 21.0425568 9.687795 21.009943 9.62957328 20.9610216 9.57135156 20.9121002 9.52636272 20.8455137 9.49460541 20.7612602 9.46284811 20.6770066 9.4469697 20.5669351 9.4469697 20.4310423L9.4469697 16.3542783C9.52107007 16.2455641 9.63486537 16.1640296 9.788359 16.1096725 9.94185264 16.0553154 10.1059296 16.0281372 10.2805948 16.0281372 10.4764315 16.0281372 10.6630028 16.0593921 10.8403144 16.1219028 11.017626 16.1844135 11.1592086 16.3270988 11.2650662 16.549963L12.0589949 18.1969756C12.1383881 18.3654827 12.209841 18.5244749 12.2733556 18.673957 12.3368702 18.8234391 12.4056767 18.9960204 12.479777 19.1917061L12.5194735 19.1835525C12.4983019 18.890024 12.4850699 18.5965 12.479777 18.3029715 12.4744842 18.009443 12.4718377 17.715919 12.4718377 17.4223905L12.4718377 16.101519C12.5300595 16.0852118 12.6187139 16.0689049 12.7378038 16.0525978 12.8568937 16.0362907 12.9746586 16.0281372 13.0911021 16.0281372 13.323989 16.0281372 13.5012979 16.0702634 13.6230343 16.1545169 13.7447706 16.2387704 13.8056378 16.4140695 13.8056378 16.6804195L13.8056378 20.8713328zM18.219881 16.101519C18.2569312 16.1613118 18.2900112 16.2414874 18.3191221 16.342048 18.3482329 16.4426087 18.3627881 16.5472446 18.3627881 16.6559589 18.3627881 16.8679517 18.3191225 17.0187904 18.2317899 17.1084797 18.1444573 17.1981689 18.0266924 17.2430129 17.8784917 17.2430129L16.2112416 17.2430129 16.2112416 18.1643615 17.9499452 18.1643615C17.9922883 18.2241544 18.0280147 18.302971 18.0571256 18.4008138 18.0862365 18.4986567 18.1007917 18.6019337 18.1007917 18.7106479 18.1007917 18.917205 18.057126 19.0653259 17.9697935 19.1550152 17.8824609 19.2447044 17.764696 19.2895484 17.6164952 19.2895484L16.2271201 19.2895484 16.2271201 21.0099428C16.1688984 21.0262499 16.0775975 21.0425568 15.9532148 21.0588639 15.828832 21.0751711 15.7057743 21.0833245 15.584038 21.0833245 15.4623016 21.0833245 15.3551223 21.0738122 15.2624969 21.0547872 15.1698714 21.0357622 15.0918025 21.0017895 15.0282879 20.9528681 14.9647733 20.9039467 14.9171381 20.8360013 14.8853808 20.7490299 14.8536235 20.6620585 14.837745 20.5479102 14.837745 20.4065817L14.837745 16.8597971C14.837745 16.6260614 14.9039051 16.44125 15.0362272 16.3053572 15.1685493 16.1694644 15.3485047 16.101519 15.5760987 16.101519L18.219881 16.101519zM21.5067455 17.0962494C21.0991934 17.0962494 20.7869179 17.2239867 20.5699097 17.4794652 20.3529015 17.7349437 20.244399 18.0964131 20.244399 18.5638844 20.244399 19.0367914 20.3648103 19.4009787 20.6056365 19.6564571 20.8464627 19.9119356 21.170647 20.039673 21.5781991 20.039673 21.7952073 20.039673 21.9791323 20.009777 22.1299794 19.9499841 22.2808266 19.8901913 22.4250556 19.8222459 22.5626705 19.7461459 22.6526496 19.8222459 22.7227792 19.9132927 22.7730616 20.0192891 22.823344 20.1252855 22.8484848 20.2489461 22.8484848 20.3902747 22.8484848 20.6131389 22.7280735 20.802027 22.4872473 20.9569448 22.2464211 21.1118626 21.8798944 21.1893204 21.3876562 21.1893204 21.033033 21.1893204 20.6995863 21.1376819 20.3873061 21.0344034 20.075026 20.9311248 19.8024465 20.7721326 19.5695596 20.557422 19.3366727 20.3427113 19.1527478 20.0709298 19.0177792 19.7420692 18.8828107 19.4132086 18.8153274 19.0204842 18.8153274 18.5638844 18.8153274 18.1398988 18.8801643 17.7661992 19.00984 17.4427743 19.1395156 17.1193494 19.3168246 16.846209 19.5417721 16.6233448 19.7667197 16.4004805 20.0300367 16.231976 20.3317311 16.117826 20.6334255 16.0036761 20.9562866 15.9466019 21.300324 15.9466019 21.7872694 15.9466019 22.1643817 16.0281364 22.4316723 16.1912078 22.698963 16.3542792 22.8326063 16.5635509 22.8326063 16.8190294 22.8326063 16.960358 22.798203 17.0826596 22.7293956 17.1859382 22.6605881 17.2892167 22.581196 17.3707512 22.491217 17.430544 22.353602 17.3381369 22.2067267 17.2593203 22.0505866 17.1940917 21.8944465 17.1288632 21.713168 17.0962494 21.5067455 17.0962494zM16.955573 8.84708554C16.955573 9.32057563 16.5483844 9.7048748 16.0466561 9.7048748 15.5449278 9.7048748 15.1377392 9.32057563 15.1377392 8.84708554 15.1377392 8.37359544 15.5449278 7.98929628 16.0466561 7.98929628 16.5483844 7.98929628 16.955573 8.37358009 16.955573 8.84708554zM20.1334564 13.443112C19.9416775 13.595524 19.6547735 13.5720559 19.4935699 13.3907732 19.4217667 13.3104384 19.3869141 13.2126522 19.3869141 13.1151423 19.3869141 12.9927523 19.4420635 12.8712372 19.5490121 12.7863132 20.788777 11.8027265 21.5001577 10.3667848 21.5001577 8.84707019 21.5001577 7.32735562 20.788777 5.89141391 19.5487194 4.90781187 19.4417708 4.82290322 19.3866213 4.70137271 19.3866213 4.57899803 19.3866213 4.48150349 19.4217829 4.3839936 19.4932772 4.30365884 19.6547573 4.12208446 19.9413685 4.09863175 20.1334564 4.25104371 21.5798487 5.39847709 22.4090909 7.07347382 22.4090909 8.84708554 22.4090909 10.6206973 21.5798487 12.2959703 20.1334564 13.443112zM11.9423011 4.25106274C12.1340801 4.09865078 12.4209841 4.12211884 12.5821876 4.30340159 12.6539909 4.38373636 12.6888435 4.48152252 12.6888435 4.57903241 12.6888435 4.70142244 12.6336941 4.8229376 12.5267455 4.9078616 11.2869806 5.89144829 10.5755999 7.32739 10.5755999 8.84710457 10.5755999 10.3668191 11.2869806 11.8027608 12.5270382 12.7863629 12.6339868 12.8712715 12.6891363 12.992802 12.6891363 13.1151767 12.6891363 13.2126713 12.6539746 13.3101812 12.5824804 13.3905159 12.4210003 13.5720903 12.1343891 13.595543 11.9423011 13.443131 10.4959088 12.2956977 9.66666667 10.6207009 9.66666667 8.84708922 9.66666667 7.0734775 10.4959088 5.3982045 11.9423011 4.25106274zM11.4845046 8.81850003C11.4845046 7.55154681 12.0768204 6.35521267 13.1096488 5.53544198 13.301444 5.38306072 13.588348 5.40649809 13.749828 5.58805711 13.8216313 5.66840722 13.8564839 5.76619339 13.8564839 5.86370328 13.8564839 5.98578633 13.8016435 6.10730149 13.6943858 6.1922255 12.8675832 6.84814949 12.3934215 7.80542861 12.3934215 8.81848468 12.3934215 9.83154075 12.8675832 10.7888352 13.6943858 11.4444676 13.8013345 11.5291 13.8564839 11.6506305 13.8564839 11.7730052 13.8564839 11.8705151 13.8213223 11.9683012 13.749828 12.048636 13.588348 12.2302104 13.3017367 12.2536477 13.1096488 12.1012511 12.0768042 11.2817874 11.4845046 10.0854532 11.4845046 8.81850003zM13.3023425 8.78959122C13.3023425 8.02903557 13.657732 7.31105704 14.2773054 6.81982392 14.4693771 6.66742731 14.7559884 6.69086467 14.9174847 6.87243905 14.9892879 6.95277381 15.0241243 7.05055998 15.0241243 7.14806987 15.0241243 7.27016827 14.9693001 7.39168343 14.8620425 7.47660744 14.4484785 7.80456176 14.2112432 8.28320899 14.2112432 8.78959122 14.2112432 9.29597344 14.4484785 9.77460533 14.8620425 10.102575 14.9689911 10.1872074 15.0241243 10.3087379 15.0241243 10.4311126 15.0241243 10.5286225 14.9889789 10.6264086 14.9174847 10.7067434 14.7560046 10.8883178 14.4693934 10.9117705 14.2773054 10.7593585 13.657732 10.2681407 13.3023425 9.55016221 13.3023425 8.78959122zM20.591253 8.87567473C20.591253 10.1426279 19.9989371 11.3389621 18.9661088 12.1587328 18.7743136 12.311114 18.4874096 12.2876767 18.3259295 12.1061176 18.2541263 12.0257675 18.2192737 11.9279814 18.2192737 11.8304715 18.2192737 11.7083884 18.2741141 11.5868733 18.3813717 11.5019493 19.2081744 10.8460253 19.682336 9.88874615 19.682336 8.87569008 19.682336 7.862634 19.2081744 6.90533953 18.3813717 6.24970717 18.2744231 6.16507478 18.2192737 6.04354428 18.2192737 5.9211696 18.2192737 5.82365971 18.2544353 5.72587354 18.3259295 5.64553878 18.4874096 5.46396441 18.7740209 5.44052704 18.9661088 5.59292365 19.9989534 6.41238737 20.591253 7.60872151 20.591253 8.87567473zM18.773415 8.90458354C18.773415 9.66513919 18.4180255 10.3831177 17.7984521 10.8743508 17.6063805 11.0267475 17.3197692 11.0033101 17.1582729 10.8217357 17.0864696 10.7414009 17.0516333 10.6436148 17.0516333 10.5461049 17.0516333 10.4240065 17.1064575 10.3024913 17.2137151 10.2175673 17.627279 9.889613 17.8645144 9.41096576 17.8645144 8.90458354 17.8645144 8.39820132 17.627279 7.91956943 17.2137151 7.59159976 17.1067665 7.50696738 17.0516333 7.38543687 17.0516333 7.26306219 17.0516333 7.1655523 17.0867786 7.06776614 17.1582729 6.98743137 17.319753 6.805857 17.6063642 6.78240428 17.7984521 6.93481625 18.4180255 7.42603402 18.773415 8.14401255 18.773415 8.90458354z" mask="url(#tile-nfc-d)"/>
      </g>
    </g>
    <g mask="url(#tile-nfc-b)">
      <g transform="translate(-56 11)">
        <mask id="tile-nfc-f" fill="#fff">
          <use xlink:href="#tile-nfc-e"/>
        </mask>
        <use fill="#FFF" opacity="0" xlink:href="#tile-nfc-e"/>
        <g mask="url(#tile-nfc-f)">
          <path fill="#FBEAD9" d="M11.5073069,53.2176656 L94.4926931,53.2176656 L104.027279,62.5488569 C105.288914,63.7835783 106,65.4744544 106,67.2397476 L106,67.2397476 C106,68.7641929 104.764193,70 103.239748,70 L2.87066246,70 C1.28523936,70 1.94158332e-16,68.7147606 0,67.1293375 L0,67.1293375 C5.8982831e-16,65.2954342 0.748099871,63.5408896 2.07139946,62.2712126 L11.5073069,53.2176656 Z"/>
          <path fill="#000" fill-rule="nonzero" d="M1.29265732,64.2437597 C1.0323106,64.4935567 0.885177453,64.8384058 0.885177453,65.1988066 L0.885177453,67.1293375 C0.885177453,68.2269381 1.7768692,69.1167192 2.87682672,69.1167192 L103.23382,69.1167192 C104.272669,69.1167192 105.114823,68.2763704 105.114823,67.2397476 L105.114823,65.406746 C105.114823,65.0508957 104.97137,64.7100037 104.71677,64.4608342 L94.1310646,54.1009464 L11.8638343,54.1009464 L1.29265732,64.2437597 Z M11.5073069,53.2176656 L94.4926931,53.2176656 L105.336579,63.8302262 C105.760913,64.2455088 106,64.8136621 106,65.406746 L106,67.2397476 C106,68.7641929 104.761539,70 103.23382,70 L2.87682672,70 C1.2879992,70 0,68.7147606 0,67.1293375 L0,65.1988066 C0,64.5981385 0.245221908,64.02339 0.679133112,63.6070617 L11.5073069,53.2176656 Z"/>
          <path fill="#E17000" d="M16.1365506,56.0883281 L89.6055848,56.0883281 C92.2339673,56.0883281 94.7566769,57.1231373 96.62794,58.9688809 L100.132052,62.4252058 C100.530743,62.8184596 100.530743,63.4560502 100.132052,63.849304 C99.9405942,64.0381512 99.6809212,64.1442444 99.4101584,64.1442444 L6.33197703,64.1442444 C5.76814273,64.1442444 5.31106472,63.6933999 5.31106472,63.1372549 C5.31106472,62.8701847 5.41862481,62.6140529 5.61008301,62.4252058 L9.11419545,58.9688809 C10.9854585,57.1231373 13.5081681,56.0883281 16.1365506,56.0883281 Z"/>
          <path fill="#000" fill-rule="nonzero" d="M12.9437058,56.5299685 C12.4777313,56.5299685 12.0305457,56.7132894 11.6991487,57.0401669 L5.92122228,62.7392965 C5.81373955,62.8453134 5.75365344,62.9883959 5.75365344,63.1372549 C5.75365344,63.4483359 6.0114372,63.7026041 6.33197703,63.7026041 L99.4101584,63.7026041 C99.5646151,63.7026041 99.7124384,63.6422087 99.8209131,63.5352133 C100.044338,63.3148352 100.044338,62.9596747 99.8209131,62.7392965 L94.0429867,57.0401669 C93.7115897,56.7132894 93.2644041,56.5299685 92.7984296,56.5299685 L12.9437058,56.5299685 Z M12.9437058,55.6466877 L92.7984296,55.6466877 C93.4973913,55.6466877 94.1681698,55.9216692 94.6652652,56.4119854 L100.443192,62.111115 C101.017149,62.6772446 101.017149,63.5972652 100.443192,64.1633948 C100.16875,64.4340937 99.7972272,64.5858848 99.4101584,64.5858848 L6.33197703,64.5858848 C5.52484826,64.5858848 4.86847599,63.9384639 4.86847599,63.1372549 C4.86847599,62.7519735 5.02351008,62.3827924 5.29894375,62.111115 L11.0768702,56.4119854 C11.5739656,55.9216692 12.2447441,55.6466877 12.9437058,55.6466877 Z"/>
          <path fill="#000" fill-rule="nonzero" d="M14.891109,60.6300489 L20.617499,60.6300489 C20.7584576,60.6300489 20.8727271,60.74276 20.8727271,60.8817963 L20.8727271,61.1472753 C20.8727271,61.2863116 20.7584576,61.3990227 20.617499,61.3990227 L14.891109,61.3990227 C14.7501504,61.3990227 14.6358809,61.2863116 14.6358809,61.1472753 L14.6358809,60.8817963 C14.6358809,60.74276 14.7501504,60.6300489 14.891109,60.6300489 Z M10.2134744,60.6300489 L12.8214413,60.6300489 C12.9623999,60.6300489 13.0766694,60.74276 13.0766694,60.8817963 L13.0766694,61.1472753 C13.0766694,61.2863116 12.9623999,61.3990227 12.8214413,61.3990227 L10.2134744,61.3990227 C10.0725158,61.3990227 9.95824635,61.2863116 9.95824635,61.1472753 L9.95824635,60.8817963 C9.95824635,60.74276 10.0725158,60.6300489 10.2134744,60.6300489 Z M22.6871667,60.6300489 L28.4135567,60.6300489 C28.5545152,60.6300489 28.6687847,60.74276 28.6687847,60.8817963 L28.6687847,61.1472753 C28.6687847,61.2863116 28.5545152,61.3990227 28.4135567,61.3990227 L22.6871667,61.3990227 C22.5462081,61.3990227 22.4319386,61.2863116 22.4319386,61.1472753 L22.4319386,60.8817963 C22.4319386,60.74276 22.5462081,60.6300489 22.6871667,60.6300489 Z M30.4832244,60.6300489 L36.2096143,60.6300489 C36.3505729,60.6300489 36.4648424,60.74276 36.4648424,60.8817963 L36.4648424,61.1472753 C36.4648424,61.2863116 36.3505729,61.3990227 36.2096143,61.3990227 L30.4832244,61.3990227 C30.3422658,61.3990227 30.2279963,61.2863116 30.2279963,61.1472753 L30.2279963,60.8817963 C30.2279963,60.74276 30.3422658,60.6300489 30.4832244,60.6300489 Z M38.279282,60.6300489 L44.005672,60.6300489 C44.1466306,60.6300489 44.2609001,60.74276 44.2609001,60.8817963 L44.2609001,61.1472753 C44.2609001,61.2863116 44.1466306,61.3990227 44.005672,61.3990227 L38.279282,61.3990227 C38.1383234,61.3990227 38.0240539,61.2863116 38.0240539,61.1472753 L38.0240539,60.8817963 C38.0240539,60.74276 38.1383234,60.6300489 38.279282,60.6300489 Z M46.0753397,60.6300489 L51.8017297,60.6300489 C51.9426882,60.6300489 52.0569577,60.74276 52.0569577,60.8817963 L52.0569577,61.1472753 C52.0569577,61.2863116 51.9426882,61.3990227 51.8017297,61.3990227 L46.0753397,61.3990227 C45.9343811,61.3990227 45.8201116,61.2863116 45.8201116,61.1472753 L45.8201116,60.8817963 C45.8201116,60.74276 45.9343811,60.6300489 46.0753397,60.6300489 Z M53.8713973,60.6300489 L59.5977873,60.6300489 C59.7387459,60.6300489 59.8530154,60.74276 59.8530154,60.8817963 L59.8530154,61.1472753 C59.8530154,61.2863116 59.7387459,61.3990227 59.5977873,61.3990227 L53.8713973,61.3990227 C53.7304388,61.3990227 53.6161693,61.2863116 53.6161693,61.1472753 L53.6161693,60.8817963 C53.6161693,60.74276 53.7304388,60.6300489 53.8713973,60.6300489 Z M61.667455,60.6300489 L67.393845,60.6300489 C67.5348036,60.6300489 67.6490731,60.74276 67.6490731,60.8817963 L67.6490731,61.1472753 C67.6490731,61.2863116 67.5348036,61.3990227 67.393845,61.3990227 L61.667455,61.3990227 C61.5264964,61.3990227 61.4122269,61.2863116 61.4122269,61.1472753 L61.4122269,60.8817963 C61.4122269,60.74276 61.5264964,60.6300489 61.667455,60.6300489 Z M69.4635127,60.6300489 L75.1899026,60.6300489 C75.3308612,60.6300489 75.4451307,60.74276 75.4451307,60.8817963 L75.4451307,61.1472753 C75.4451307,61.2863116 75.3308612,61.3990227 75.1899026,61.3990227 L69.4635127,61.3990227 C69.3225541,61.3990227 69.2082846,61.2863116 69.2082846,61.1472753 L69.2082846,60.8817963 C69.2082846,60.74276 69.3225541,60.6300489 69.4635127,60.6300489 Z M77.2595703,60.6300489 L82.9859603,60.6300489 C83.1269189,60.6300489 83.2411884,60.74276 83.2411884,60.8817963 L83.2411884,61.1472753 C83.2411884,61.2863116 83.1269189,61.3990227 82.9859603,61.3990227 L77.2595703,61.3990227 C77.1186118,61.3990227 77.0043423,61.2863116 77.0043423,61.1472753 L77.0043423,60.8817963 C77.0043423,60.74276 77.1186118,60.6300489 77.2595703,60.6300489 Z M92.8516857,60.6300489 L95.4596526,60.6300489 C95.6006111,60.6300489 95.7148806,60.74276 95.7148806,60.8817963 L95.7148806,61.1472753 C95.7148806,61.2863116 95.6006111,61.3990227 95.4596526,61.3990227 L92.8516857,61.3990227 C92.7107271,61.3990227 92.5964576,61.2863116 92.5964576,61.1472753 L92.5964576,60.8817963 C92.5964576,60.74276 92.7107271,60.6300489 92.8516857,60.6300489 L92.8516857,60.6300489 Z M85.055628,60.6300489 L90.782018,60.6300489 C90.9229765,60.6300489 91.0372461,60.74276 91.0372461,60.8817963 L91.0372461,61.1472753 C91.0372461,61.2863116 90.9229765,61.3990227 90.782018,61.3990227 L85.055628,61.3990227 C84.9146694,61.3990227 84.8003999,61.2863116 84.8003999,61.1472753 L84.8003999,60.8817963 C84.8003999,60.74276 84.9146694,60.6300489 85.055628,60.6300489 Z M18.7891379,58.3231274 L24.5155278,58.3231274 C24.6564864,58.3231274 24.7707559,58.4358385 24.7707559,58.5748747 L24.7707559,58.8403538 C24.7707559,58.97939 24.6564864,59.0921012 24.5155278,59.0921012 L18.7891379,59.0921012 C18.6481793,59.0921012 18.5339098,58.97939 18.5339098,58.8403538 L18.5339098,58.5748747 C18.5339098,58.4358385 18.6481793,58.3231274 18.7891379,58.3231274 Z M14.1115033,58.3231274 L16.7194702,58.3231274 C16.8604287,58.3231274 16.9746982,58.4358385 16.9746982,58.5748747 L16.9746982,58.8403538 C16.9746982,58.97939 16.8604287,59.0921012 16.7194702,59.0921012 L14.1115033,59.0921012 C13.9705447,59.0921012 13.8562752,58.97939 13.8562752,58.8403538 L13.8562752,58.5748747 C13.8562752,58.4358385 13.9705447,58.3231274 14.1115033,58.3231274 Z M26.5851955,58.3231274 L32.3115855,58.3231274 C32.4525441,58.3231274 32.5668136,58.4358385 32.5668136,58.5748747 L32.5668136,58.8403538 C32.5668136,58.97939 32.4525441,59.0921012 32.3115855,59.0921012 L26.5851955,59.0921012 C26.4442369,59.0921012 26.3299674,58.97939 26.3299674,58.8403538 L26.3299674,58.5748747 C26.3299674,58.4358385 26.4442369,58.3231274 26.5851955,58.3231274 Z M34.3812532,58.3231274 L40.1076432,58.3231274 C40.2486017,58.3231274 40.3628712,58.4358385 40.3628712,58.5748747 L40.3628712,58.8403538 C40.3628712,58.97939 40.2486017,59.0921012 40.1076432,59.0921012 L34.3812532,59.0921012 C34.2402946,59.0921012 34.1260251,58.97939 34.1260251,58.8403538 L34.1260251,58.5748747 C34.1260251,58.4358385 34.2402946,58.3231274 34.3812532,58.3231274 Z M42.1773108,58.3231274 L47.9037008,58.3231274 C48.0446594,58.3231274 48.1589289,58.4358385 48.1589289,58.5748747 L48.1589289,58.8403538 C48.1589289,58.97939 48.0446594,59.0921012 47.9037008,59.0921012 L42.1773108,59.0921012 C42.0363523,59.0921012 41.9220828,58.97939 41.9220828,58.8403538 L41.9220828,58.5748747 C41.9220828,58.4358385 42.0363523,58.3231274 42.1773108,58.3231274 Z M49.9733685,58.3231274 L55.6997585,58.3231274 C55.8407171,58.3231274 55.9549866,58.4358385 55.9549866,58.5748747 L55.9549866,58.8403538 C55.9549866,58.97939 55.8407171,59.0921012 55.6997585,59.0921012 L49.9733685,59.0921012 C49.8324099,59.0921012 49.7181404,58.97939 49.7181404,58.8403538 L49.7181404,58.5748747 C49.7181404,58.4358385 49.8324099,58.3231274 49.9733685,58.3231274 Z M57.7694262,58.3231274 L63.4958161,58.3231274 C63.6367747,58.3231274 63.7510442,58.4358385 63.7510442,58.5748747 L63.7510442,58.8403538 C63.7510442,58.97939 63.6367747,59.0921012 63.4958161,59.0921012 L57.7694262,59.0921012 C57.6284676,59.0921012 57.5141981,58.97939 57.5141981,58.8403538 L57.5141981,58.5748747 C57.5141981,58.4358385 57.6284676,58.3231274 57.7694262,58.3231274 Z M65.5654838,58.3231274 L71.2918738,58.3231274 C71.4328324,58.3231274 71.5471019,58.4358385 71.5471019,58.5748747 L71.5471019,58.8403538 C71.5471019,58.97939 71.4328324,59.0921012 71.2918738,59.0921012 L65.5654838,59.0921012 C65.4245253,59.0921012 65.3102558,58.97939 65.3102558,58.8403538 L65.3102558,58.5748747 C65.3102558,58.4358385 65.4245253,58.3231274 65.5654838,58.3231274 Z M73.3615415,58.3231274 L79.0879315,58.3231274 C79.2288901,58.3231274 79.3431596,58.4358385 79.3431596,58.5748747 L79.3431596,58.8403538 C79.3431596,58.97939 79.2288901,59.0921012 79.0879315,59.0921012 L73.3615415,59.0921012 C73.2205829,59.0921012 73.1063134,58.97939 73.1063134,58.8403538 L73.1063134,58.5748747 C73.1063134,58.4358385 73.2205829,58.3231274 73.3615415,58.3231274 Z M81.1575992,58.3231274 L86.8839891,58.3231274 C87.0249477,58.3231274 87.1392172,58.4358385 87.1392172,58.5748747 L87.1392172,58.8403538 C87.1392172,58.97939 87.0249477,59.0921012 86.8839891,59.0921012 L81.1575992,59.0921012 C81.0166406,59.0921012 80.9023711,58.97939 80.9023711,58.8403538 L80.9023711,58.5748747 C80.9023711,58.4358385 81.0166406,58.3231274 81.1575992,58.3231274 Z M88.9536568,58.3231274 L91.5616237,58.3231274 C91.7025823,58.3231274 91.8168518,58.4358385 91.8168518,58.5748747 L91.8168518,58.8403538 C91.8168518,58.97939 91.7025823,59.0921012 91.5616237,59.0921012 L88.9536568,59.0921012 C88.8126983,59.0921012 88.6984288,58.97939 88.6984288,58.8403538 L88.6984288,58.5748747 C88.6984288,58.4358385 88.8126983,58.3231274 88.9536568,58.3231274 Z"/>
          <path fill="#9D9D9D" d="M15.7118998,0 L90.0668058,0 C92.5111559,0 94.4926931,1.97729133 94.4926931,4.41640379 L94.4926931,54.3217666 L11.2860125,54.3217666 L11.2860125,4.41640379 C11.2860125,1.97729133 13.2675498,0 15.7118998,0 Z"/>
          <path fill="#FFF" fill-rule="nonzero" d="M13.0563674,52.555205 L92.7223382,52.555205 L92.7223382,4.41640379 C92.7223382,2.95293631 91.5334159,1.76656151 90.0668058,1.76656151 L15.7118998,1.76656151 C14.2452898,1.76656151 13.0563674,2.95293631 13.0563674,4.41640379 L13.0563674,52.555205 Z M15.7118998,0 L90.0668058,0 C92.5111559,0 94.4926931,1.97729133 94.4926931,4.41640379 L94.4926931,54.3217666 L11.2860125,54.3217666 L11.2860125,4.41640379 C11.2860125,1.97729133 13.2675498,0 15.7118998,0 Z"/>
          <path fill="#000" fill-rule="nonzero" d="M12.17119,53.4384858 L93.6075157,53.4384858 L93.6075157,4.41640379 C93.6075157,2.46511382 92.0222859,0.883280757 90.0668058,0.883280757 L15.7118998,0.883280757 C13.7564198,0.883280757 12.17119,2.46511382 12.17119,4.41640379 L12.17119,53.4384858 Z M15.7118998,0 L90.0668058,0 C92.5111559,0 94.4926931,1.97729133 94.4926931,4.41640379 L94.4926931,54.3217666 L11.2860125,54.3217666 L11.2860125,4.41640379 C11.2860125,1.97729133 13.2675498,0 15.7118998,0 Z"/>
          <ellipse cx="52.889" cy="4.196" fill="#000" rx="1" ry="1"/>
          <rect width="80.109" height="41.293" x="12.614" y="6.845" fill="#FFF"/>
          <g transform="translate(78.56 11.262)">
            <path fill="#000" d="M8.4024168,9.71608833 L1.3402628,9.71608833 C0.601399975,9.71608833 0,9.11597699 0,8.37869735 L0,1.33739098 C0,0.600111338 0.601399975,0 1.3402628,0 L8.39668918,0 C9.13555201,0 9.73695198,0.600111338 9.73695198,1.33739098 L9.73695198,8.37869735 C9.73695198,9.12169234 9.14127963,9.71608833 8.4024168,9.71608833 Z"/>
            <g fill-rule="nonzero" transform="translate(1.77 5.741)">
              <path fill="#FFF" d="M0.54618747,2.21638228 L-3.5971226e-14,2.21638228 L-3.5971226e-14,0.142278463 L0.563901658,0.142278463 C0.896536411,0.142278463 1.15142135,0.228171639 1.32856412,0.399960568 C1.50570688,0.571749497 1.59427694,0.811512657 1.59427694,1.11925724 C1.59427694,1.49445269 1.50029427,1.77110249 1.31232611,1.94921494 C1.12435795,2.12732739 0.868980958,2.21638228 0.54618747,2.21638228 Z M0.383807411,0.477423286 L0.383807411,1.88123745 L0.563901658,1.88123745 C0.752853944,1.88123745 0.90440715,1.82327273 1.01856582,1.70734155 C1.13272449,1.59141038 1.18980297,1.40170766 1.18980297,1.1382277 C1.18980297,0.925335901 1.13124833,0.761980781 1.01413728,0.648157442 C0.897026223,0.534334103 0.739076291,0.477423286 0.54028274,0.477423286 L0.383807411,0.477423286 Z M1.90427523,0.221322053 C1.90427523,0.162302544 1.9224813,0.110661248 1.95889398,0.066396616 C1.99530666,0.022131984 2.04697253,2.91752733e-13 2.11389313,2.91752733e-13 C2.18081373,2.91752733e-13 2.23247959,0.02107808 2.26889227,0.0632348724 C2.30530495,0.105391665 2.32351102,0.158086865 2.32351102,0.221322053 C2.32351102,0.278233723 2.30530495,0.328294163 2.26889227,0.371504875 C2.23247959,0.414715587 2.18081373,0.436320619 2.11389313,0.436320619 C2.04697253,0.436320619 1.99530666,0.415769491 1.95889398,0.374666619 C1.9224813,0.333563746 1.90427523,0.282449402 1.90427523,0.221322053 Z M2.29693974,0.641833955 L2.29693974,2.21638228 L1.93379888,2.21638228 L1.93379888,0.657642673 L2.29693974,0.641833955 Z M3.22398225,1.47653427 C3.31452189,1.47653427 3.38390177,1.45229448 3.43212397,1.40381417 C3.48034616,1.35533386 3.5044569,1.27945277 3.5044569,1.17616863 C3.5044569,1.08553152 3.48182233,1.01650081 3.43655251,0.969074419 C3.39128269,0.921648028 3.32141076,0.897935188 3.22693462,0.897935188 C3.14426799,0.897935188 3.07685634,0.922701932 3.02469764,0.972236163 C2.97253893,1.02177039 2.94645997,1.09712453 2.94645997,1.19830083 C2.94645997,1.29315361 2.97057071,1.36323823 3.01879291,1.40855678 C3.06701511,1.45387533 3.13541087,1.47653427 3.22398225,1.47653427 Z M2.95531707,1.79587038 C2.95531707,1.82959581 2.96958669,1.85647036 2.99812635,1.87649484 C3.02666602,1.89651931 3.07636367,1.9065314 3.14722077,1.9065314 L3.48674271,1.90969315 C3.65207596,1.91180099 3.77213759,1.94605287 3.84693121,2.01244981 C3.92172482,2.07884676 3.95912107,2.17211727 3.95912107,2.29226412 C3.95912107,2.44192074 3.89712203,2.56997007 3.77312209,2.67641597 C3.64912215,2.78286187 3.45229981,2.83608403 3.18264915,2.83608403 C2.97007783,2.83608403 2.8121279,2.79972434 2.70879461,2.72700387 C2.60546133,2.6542834 2.55379547,2.55785119 2.55379547,2.43770433 C2.55379547,2.36392994 2.57495387,2.29700704 2.61727131,2.23693361 C2.65958875,2.17686018 2.71715928,2.13206926 2.78998464,2.10255951 L2.78998464,2.09307428 C2.75258784,2.0783194 2.72158832,2.0519718 2.69698516,2.01403069 C2.67238199,1.97608957 2.6600806,1.9307717 2.6600806,1.87807571 C2.6600806,1.82748756 2.67582638,1.78006188 2.70731843,1.73579725 C2.73881048,1.69153261 2.7821114,1.65780769 2.83722248,1.63462145 L2.83722248,1.62513622 C2.76833362,1.58930295 2.71273131,1.5371347 2.67041387,1.46862991 C2.62809643,1.40012512 2.60693803,1.31633976 2.60693803,1.21727129 C2.60693803,1.03178141 2.66450857,0.887396559 2.77965137,0.784112418 C2.89479417,0.680828276 3.0448712,0.62918698 3.22988698,0.62918698 C3.2712203,0.62918698 3.31058477,0.632348692 3.34798157,0.638672211 C3.38537838,0.64499573 3.42277462,0.653426962 3.46017143,0.66396616 L3.93845451,0.66396616 L3.93845451,0.91690565 L3.70817007,0.91690565 L3.70817007,0.92639088 C3.73966211,0.947469277 3.76869341,0.982248109 3.79526482,1.03072842 C3.82183624,1.07920873 3.83512175,1.13928126 3.83512175,1.21094781 C3.83512175,1.3753593 3.7809956,1.50288168 3.67274169,1.59351878 C3.56448778,1.68415589 3.40801401,1.72947376 3.2033157,1.72947376 C3.17182365,1.72947376 3.13984002,1.72736595 3.10736385,1.72315027 C3.07488767,1.71893459 3.04388816,1.71261117 3.01436436,1.70417981 C2.99665008,1.71261117 2.98238046,1.72578497 2.97155507,1.74370161 C2.96072968,1.76161824 2.95531707,1.77900766 2.95531707,1.79587038 Z M2.87855558,2.355499 C2.87855558,2.41662635 2.90611071,2.46510593 2.9612218,2.5009392 C3.01633288,2.53677248 3.09998238,2.55468884 3.2121728,2.55468884 C3.36569653,2.55468884 3.47493293,2.53571857 3.53988528,2.49777746 C3.60483763,2.45983635 3.63731331,2.41241067 3.63731331,2.355499 C3.63731331,2.31123436 3.62205958,2.27698248 3.59155166,2.25274233 C3.56104374,2.22850217 3.51233021,2.21532837 3.44540961,2.21322053 L2.9523647,2.19741182 C2.92874567,2.21638237 2.9105396,2.23904131 2.89774596,2.2653893 C2.88495231,2.2917373 2.87855558,2.32177356 2.87855558,2.355499 Z"/>
              <path fill="#E17000" d="M4.17464369,0.221322053 C4.17464369,0.162302544 4.19284976,0.110661248 4.22926244,0.066396616 C4.26567512,0.022131984 4.31734098,5.10327891e-13 4.38426158,5.10327891e-13 C4.45118218,5.10327891e-13 4.50284805,0.02107808 4.53926073,0.0632348724 C4.57567341,0.105391665 4.59387948,0.158086865 4.59387948,0.221322053 C4.59387948,0.278233723 4.57567341,0.328294163 4.53926073,0.371504875 C4.50284805,0.414715587 4.45118218,0.436320619 4.38426158,0.436320619 C4.31734098,0.436320619 4.26567512,0.415769491 4.22926244,0.374666619 C4.19284976,0.333563746 4.17464369,0.282449402 4.17464369,0.221322053 Z M4.56730819,0.641833955 L4.56730819,2.21638228 L4.20416734,2.21638228 L4.20416734,0.657642673 L4.56730819,0.641833955 Z M5.55930273,2.21638228 L5.01311526,2.21638228 L5.01311526,0.142278463 L5.57701692,0.142278463 C5.90965168,0.142278463 6.16453661,0.228171639 6.34167938,0.399960568 C6.51882215,0.571749497 6.6073922,0.811512657 6.6073922,1.11925724 C6.6073922,1.49445269 6.51340953,1.77110249 6.32544137,1.94921494 C6.13747322,2.12732739 5.88209622,2.21638228 5.55930273,2.21638228 Z M5.39692268,0.477423286 L5.39692268,1.88123745 L5.57701692,1.88123745 C5.76596921,1.88123745 5.91752241,1.82327273 6.03168109,1.70734155 C6.14583976,1.59141038 6.20291824,1.40170766 6.20291824,1.1382277 C6.20291824,0.925335901 6.14436359,0.761980781 6.02725254,0.648157442 C5.91014149,0.534334103 5.75219156,0.477423286 5.553398,0.477423286 L5.39692268,0.477423286 Z"/>
            </g>
          </g>
        </g>
      </g>
    </g>
  </g>
</svg>